{
  "packageId": "id.ametory.staging1.yukcuci.twa",
  "host": "yukcuci.staging1.ametory.id",
  "name": "Yukcuci.com",
  "launcherName": "Yukcuci",
  "display": "standalone",
  "themeColor": "#35B9F6",
  "themeColorDark": "#000000",
  "navigationColor": "#000000",
  "navigationColorDark": "#000000",
  "navigationDividerColor": "#000000",
  "navigationDividerColorDark": "#000000",
  "backgroundColor": "#FFFFFF",
  "enableNotifications": true,
  "startUrl": "/",
  "iconUrl": "https://yukcuci.staging1.ametory.id/icon-512x512.png",
  "maskableIconUrl": "https://yukcuci.staging1.ametory.id/icon-512x512.png",
  "splashScreenFadeOutDuration": 300,
  "signingKey": {
    "path": "/Users/ametsuramet/AMETORY/PRODUCT/YUKCUCI/yukcuci_web_app/android.keystore",
    "alias": "android"
  },
  "appVersionName": "1",
  "appVersionCode": 1,
  "shortcuts": [],
  "generatorApp": "bubblewrap-cli",
  "webManifestUrl": "https://yukcuci.staging1.ametory.id/manifest.json",
  "fallbackType": "customtabs",
  "features": {
    "locationDelegation": {
      "enabled": true
    }
  },
  "alphaDependencies": {
    "enabled": false
  },
  "enableSiteSettingsShortcut": true,
  "isChromeOSOnly": false,
  "isMetaQuest": false,
  "fullScopeUrl": "https://yukcuci.staging1.ametory.id/",
  "minSdkVersion": 19,
  "orientation": "portrait",
  "fingerprints": [],
  "additionalTrustedOrigins": [],
  "retainedBundles": [],
  "appVersion": "1"
}